// This file is generated automatically. All manually added changes will be removed when running the Converter.
// Map 018-3: Northern Mines warps
018-3,100,133,0	warp	#018-3_100_133	1,0,018-1,79,60
018-3,44,39,0	warp	#018-3_44_39	0,0,018-1,112,62
018-3,49,100,0	warp	#018-3_49_100	0,0,018-1,128,57
018-3,123,167,0	warp	#018-3_123_167	0,0,018-1,90,43
018-3,70,106,0	warp	#018-3_70_106	0,0,018-1,69,55
018-3,50,88,0	warp	#018-3_50_88	0,0,013-3,69,142
018-3,145,163,0	warp	#018-3_145_163	0,0,018-1,153,47
018-3,64,104,0	warp	#018-3_64_104	0,0,018-1,158,35
018-3,29,167,0	warp	#018-3_29_167	0,0,018-1,162,45
018-3,97,69,0	warp	#018-3_97_69	0,0,013-3,178,43
018-3,27,54,0	warp	#018-3_27_54	0,0,013-3,169,44
018-3,134,63,0	warp	#018-3_134_63	0,0,013-3,152,29
018-3,177,56,0	warp	#018-3_177_56	0,0,018-2,114,20
018-3,172,21,0	warp	#018-3_172_21	0,0,013-3,123,103
018-3,177,21,0	warp	#018-3_177_21	0,0,013-3,147,103
018-3,27,91,0	warp	#018-3_27_91	0,0,013-3,158,67
018-3,90,50,0	warp	#018-3_90_50	0,0,013-3,67,50
018-3,71,122,0	warp	#018-3_71_122	0,0,013-3,111,41
018-3,174,85,0	warp	#018-3_174_85	0,0,013-3,62,99
018-3,102,69,0	warp	#018-3_102_69	0,0,013-3,68,96
018-3,179,181,0	warp	#018-3_179_181	0,0,009-3,157,31
018-3,107,146,0	warp	#018-3_107_146	0,0,018-1,78,33
