// This file is generated automatically. All manually added changes will be removed when running the Converter.
// Map 011-1: Woodland warps
011-1,58,92,0	warp	#011-1_58_92	0,0,011-3,31,45
011-1,30,61,0	warp	#011-1_30_61	0,2,014-1,108,91
011-1,49,104,0	warp	#011-1_49_104	1,0,010-1,48,25
011-1,124,62,0	warp	#011-1_124_62	0,3,008-1,25,61
011-1,73,9,0	warp	#011-1_73_9	1,0,012-1,132,175
011-1,38,36,0	warp	#011-1_38_36	0,0,011-6,49,100
