// This file is generated automatically. All manually added changes will be removed when running the Converter.
// Map 034-1: Snow Forest warps
034-1,160,20,0	warp	#034-1_160_20	0,1,033-1,23,19
034-1,16,103,0	warp	#034-1_16_103	0,2,045-1,176,133
034-1,15,31,0	warp	#034-1_15_31	0,1,045-1,174,59
034-1,95,18,0	warp	#034-1_95_18	1,0,046-1,94,123
034-1,31,68,0	warp	#034-1_31_68	0,0,034-2,28,31
034-1,64,99,0	warp	#034-1_64_99	0,0,034-2,73,29
