027-5,60,34,0	script	#casket17	NPC127,1,1,{
    end;

OnTouch:
    heal ((MaxHp/100) * -10), 0;
    specialeffect 301;
    specialeffect 302;
    end;
}
027-5,34,50,0	script	#casket18	NPC127,1,1,{
    end;

OnTouch:
    heal ((MaxHp/100) * -10), 0;
    specialeffect 301;
    specialeffect 302;
    end;
}
027-5,49,76,0	script	#casket19	NPC127,1,1,{
    end;

OnTouch:
    heal ((MaxHp/100) * -10), 0;
    specialeffect 301;
    specialeffect 302;
    end;
}
027-5,60,89,0	script	#casket20	NPC127,1,1,{
    end;

OnTouch:
    heal ((MaxHp/100) * -10), 0;
    specialeffect 301;
    specialeffect 302;
    end;
}
027-5,90,90,0	script	#casket21	NPC127,1,1,{
    end;

OnTouch:
    heal ((MaxHp/100) * -10), 0;
    specialeffect 301;
    specialeffect 302;
    end;
}
027-5,92,76,0	script	#casket22	NPC127,1,1,{
    end;

OnTouch:
    heal ((MaxHp/100) * -10), 0;
    specialeffect 301;
    specialeffect 302;
    end;
}
027-5,117,61,0	script	#casket23	NPC127,1,1,{
    end;

OnTouch:
    heal ((MaxHp/100) * -10), 0;
    specialeffect 301;
    specialeffect 302;
    end;
}
027-5,94,48,0	script	#casket24	NPC127,1,1,{
    end;

OnTouch:
    heal ((MaxHp/100) * -10), 0;
    specialeffect 301;
    specialeffect 302;
    end;
}
