// This file is generated automatically. All manually added changes will be removed when running the Converter.
// Map 031-1: Nivalis Port mobs
031-1,0,0,0,0	monster	Fluffy	1020,10,100000,30000
031-1,0,0,0,0	monster	Pollett	1113,14,100000,30000
031-1,76,26,5,2	monster	White Slime	1093,7,100000,30000
031-1,0,0,0,0	monster	White Bell	1095,4,100000,30000
