// This file is generated automatically. All manually added changes will be removed when running the Converter.
// Map 030-1: Romantic Place mobs
030-1,0,0,0,0	monster	Pollett	1113,7,100000,30000
030-1,0,0,0,0	monster	White Bell	1095,4,100000,30000
030-1,71,67,0,0	monster	Santaboo	1112,2,100000,30000
030-1,71,67,0,0	monster	Reinboo	1094,2,100000,30000
