
027-8,38,61,0	script	#GeneralExit3	NPC45,3,0,{
    if ($@CRYPT_FIGHT3 != 0)
        goto L_Block;
    warp "027-5",70,26;
    end;

L_Block:
    message strcharinfo(0), "A force field seems to be blocking you from exiting.";
    end;
}
