// This file is generated automatically. All manually added changes will be removed when running the Converter.
// Map 003-4: Beach warps
003-4,172,77,0	warp	#003-4_172_77	0,4,002-1,32,66
003-4,141,19,0	warp	#003-4_141_19	2,0,004-1,37,110
003-4,114,117,0	warp	#003-4_114_117	3,0,043-1,44,20
