// This file is generated automatically. All manually added changes will be removed when running the Converter.
// Map 002-1: Tulimshar South mobs
002-1,93,62,12,4	monster	Maggot	1002,11,100000,30000
002-1,112,62,5,4	monster	Maggot	1002,11,100000,30000
002-1,108,73,5,4	monster	Maggot	1002,11,100000,30000
002-1,62,28,1,7	monster	Maggot	1002,6,100000,30000
002-1,74,96,12,16	monster	Scorpion	1003,12,100000,30000
002-1,113,114,5,3	monster	Maggot	1002,11,100000,30000
002-1,43,61,5,35	monster	Scorpion	1003,6,100000,30000
002-1,70,92,24,9	monster	Scorpion	1003,10,100000,30000
002-1,40,93,9,10	monster	Red Scorpion	1004,10,100000,30000
002-1,42,40,4,14	monster	Sea Slime	1033,8,100000,30000
002-1,33,75,4,20	monster	Sea Slime	1033,8,100000,30000
002-1,99,62,18,4	monster	Scorpion	1003,6,100000,30000
002-1,73,105,10,10	monster	Fire Goblin	1011,6,100000,30000
