002-1,96,23,0	script	Jeric	NPC214,{
    @npcname$ = "Jeric";

    mes "[" + @npcname$ + "]";
    mes "\"My father is an adventurer.\"";
    next;
    mes "\"After he proved himself around town, the guards let him fight monsters in the Sandstorm mine.\"";
    @npcname$ = "";
    close;
}
002-1,112,48,0	script	Silvia	NPC207,{
    @npcname$ = "Silvia";

    mes "[" + @npcname$ + "]";
    mes "\"If you follow the road west, then north, you will arrive at the Bazaar in Northern Tulimshar.\"";
    next;
    mes "\"If you go west, then north, you'll see the Wizard Academy my parents just sent me to.\"";
    next;
    mes "\"The Academy is good, but I wish I had more free time. It takes a lot of intelligence to get what the teachers are talking about.\"";
    @npcname$ = "";
    close;
}
