// This file is generated automatically. All manually added changes will be removed when running the Converter.
// Map 026-1: Asphodel Moor warps
026-1,63,16,0	warp	#026-1_63_16	0,0,027-1,63,105
026-1,129,66,0	warp	#026-1_129_66	0,0,025-1,20,66
026-1,48,39,0	warp	#026-1_48_39	0,0,026-2,29,33
026-1,43,24,0	warp	#026-1_43_24	0,0,026-2,31,128
026-1,25,20,0	warp	#026-1_25_20	0,0,026-2,22,95
