// This file is generated automatically. All manually added changes will be removed when running the Converter.
// Map 012-4: Terranite Cave warps
012-4,193,58,0	warp	#012-4_193_58	0,0,012-3,448,62
012-4,363,26,0	warp	#012-4_363_26	0,0,012-4,474,187
012-4,474,188,0	warp	#012-4_474_188	0,0,012-4,363,27
