// This file is generated automatically. All manually added changes will be removed when running the Converter.
// Map 020-1: Nivalis warps
020-1,76,38,0	warp	#020-1_76_38	2,0,020-3,31,26
020-1,47,48,0	warp	#020-1_47_48	0,0,020-2,25,35
020-1,66,52,0	warp	#020-1_66_52	0,0,020-2,72,70
020-1,64,82,0	warp	#020-1_64_82	0,0,020-2,111,32
020-1,86,46,0	warp	#020-1_86_46	0,0,020-2,32,73
020-1,57,91,0	warp	#020-1_57_91	0,0,020-2,65,23
020-1,70,128,0	warp	#020-1_70_128	3,0,019-1,70,22
020-1,107,55,0	warp	#020-1_107_55	0,0,031-1,38,55
020-1,59,45,0	warp	#020-1_59_45	0,0,020-2,127,68
020-1,33,93,0	warp	#020-1_33_93	0,0,030-2,88,50
