// This file is generated automatically. All manually added changes will be removed when running the Converter.
// Map 069-2: Celestia's Hideout warps
069-2,45,83,0	warp	#069-2_45_83	3,0,069-2,106,116
069-2,107,117,0	warp	#069-2_107_117	3,0,069-2,44,84
