// This file is generated automatically. All manually added changes will be removed when running the Converter.
// Map 021-3: Central Tulimshar Sewers mobs
021-3,120,38,5,4	monster	Cave Maggot	1056,5,100000,30000
021-3,103,58,4,1	monster	Cave Maggot	1056,5,100000,30000
021-3,80,98,17,15	monster	Cave Maggot	1056,5,100000,30000
021-3,129,82,4,1	monster	Cave Maggot	1056,5,100000,30000
021-3,140,38,8,4	monster	Angry Fire Goblin	1108,3,100000,30000
021-3,79,98,16,15	monster	Black Scorpion	1009,4,100000,1800000
021-3,52,53,1,8	monster	Green Slime	1005,4,40000,50000
021-3,93,31,14,11	monster	Sea Slime	1033,6,100000,30000
021-3,121,128,4,1	monster	Cave Maggot	1056,5,100000,30000
021-3,47,139,4,1	monster	Cave Maggot	1056,5,100000,30000
