// This file is generated automatically. All manually added changes will be removed when running the Converter.
// Map 020-3: Ice cave warps
020-3,31,25,0	warp	#020-3_31_25	0,0,020-1,76,37
020-3,25,22,0	warp	#020-3_25_22	0,0,020-3,97,101
020-3,97,99,0	warp	#020-3_97_99	0,0,020-3,25,24
020-3,28,57,0	warp	#020-3_28_57	0,0,020-3,33,99
020-3,49,33,0	warp	#020-3_49_33	0,0,020-3,110,56
020-3,33,98,0	warp	#020-3_33_98	0,0,020-3,28,56
020-3,110,57,0	warp	#020-3_110_57	0,0,020-3,49,34
