// This file is generated automatically. All manually added changes will be removed when running the Converter.
// Map 043-4: Troll Cave warps
043-4,47,68,0	warp	#043-4_47_68	0,0,043-3,77,31
043-4,153,27,0	warp	#043-4_153_27	0,0,043-4,193,32
043-4,193,33,0	warp	#043-4_193_33	0,0,043-4,153,28
