// This file is generated automatically. All manually added changes will be removed when running the Converter.
// Map 002-2: Sandstorm Desert Indoors warps
002-2,44,34,0	warp	#002-2_44_34	0,0,002-1,73,36
002-2,44,20,0	warp	#002-2_44_20	1,0,002-2,45,78
002-2,46,79,0	warp	#002-2_46_79	1,0,002-2,43,21
002-2,46,55,0	warp	#002-2_46_55	1,0,002-2,44,109
002-2,45,110,0	warp	#002-2_45_110	1,0,002-2,45,56
002-2,23,110,0	warp	#002-2_23_110	0,0,002-1,67,30
002-2,34,20,0	warp	#002-2_34_20	0,0,002-2,79,69
002-2,37,20,0	warp	#002-2_37_20	0,0,002-2,72,31
002-2,72,32,0	warp	#002-2_72_32	0,0,002-2,37,21
002-2,79,70,0	warp	#002-2_79_70	0,0,002-2,34,21
002-2,75,101,0	warp	#002-2_75_101	0,0,002-1,109,46
002-2,83,101,0	warp	#002-2_83_101	0,0,002-1,115,46
002-2,78,132,0	warp	#002-2_78_132	0,0,002-1,114,36
002-2,68,121,0	warp	#002-2_68_121	0,0,002-1,110,28
002-2,120,67,0	warp	#002-2_120_67	0,0,002-1,99,44
002-2,120,95,0	warp	#002-2_120_95	0,0,002-1,57,36
002-2,119,132,0	warp	#002-2_119_132	0,0,002-1,57,27
