002-2,22,77,0	script	Issay	NPC156,{
    mes "[Issay the Barber]";
    mes "\"Want to change your hairstyle?\"";
    next;
    callfunc "Barber";
    mes "[Issay the Barber]";
    mes "\"Come again!\"";
    close;
}

