// This file is generated automatically. All manually added changes will be removed when running the Converter.
// Map 034-2: Trappers Huts warps
034-2,28,32,0	warp	#034-2_28_32	0,0,034-1,31,69
034-2,73,30,0	warp	#034-2_73_30	0,0,034-1,64,100
